module gitlab.com/felixz92/nextcloud-operator

go 1.16

require (
	github.com/go-logr/logr v0.3.0
	github.com/google/go-cmp v0.5.2
	github.com/jetstack/cert-manager v1.1.0
	github.com/onsi/ginkgo v1.14.1
	github.com/onsi/gomega v1.10.2
	github.com/traefik/traefik/v2 v2.4.8
	github.com/zalando/postgres-operator v1.6.2
	k8s.io/api v0.20.2
	k8s.io/apimachinery v0.20.2
	k8s.io/client-go v0.20.2
	k8s.io/kubernetes v1.13.0
	sigs.k8s.io/controller-runtime v0.8.0
)

// Containous forks
replace (
	github.com/abbot/go-http-auth => github.com/containous/go-http-auth v0.4.1-0.20200324110947-a37a7636d23e
	github.com/go-check/check => github.com/containous/check v0.0.0-20170915194414-ca0bf163426a
	github.com/gorilla/mux => github.com/containous/mux v0.0.0-20181024131434-c33f32e26898
	github.com/mailgun/minheap => github.com/containous/minheap v0.0.0-20190809180810-6e71eb837595
	github.com/mailgun/multibuf => github.com/containous/multibuf v0.0.0-20190809014333-8b6c9a7e6bba
)
